module protobuf-demo

go 1.16

require (
	github.com/golang/protobuf v1.5.2 // indirect
	gitlab.com/danigunawan/go-protobuf-example-1 v0.0.0-20210721234526-b7b055a6dffb // indirect
// gitlab.com/danigunawan/go-protobuf-example-1 v0.0.0-20210721144357-02c09a16159e // indirect
)
